<?xml version="1.0" encoding="UTF-8"?>
<svg width="300" height="31" version="1.1" viewBox="0 0 300 31" xmlns="http://www.w3.org/2000/svg">
 <g transform="matrix(3.7795 0 0 3.7795 -295.84 -634.66)" fill="#0f0" stroke="#17a500" stroke-linejoin="round">
  <path d="m146.43 175.18h-2.8187l-1.4094-2.441 1.4094-2.4411h2.8187l1.4094 2.4411z" stroke-width=".22988"/>
  <path d="m87.005 175.49s-0.92344-0.86638-0.95806-0.86638c-0.01731 0-0.20895 1.2778-0.23058 1.2778-0.02164 0-0.63328-1.1022-0.65636-1.1022-0.02308 0-0.60407 1.1623-0.62571 1.1623-0.02164 0-0.26099-1.2301-0.2783-1.2301-0.03462 0-0.94747 0.933-0.94747 0.933s0.16016-1.2576 0.14285-1.2876c-0.0087-0.015-1.1533 0.57989-1.1641 0.56115-0.01082-0.0188 0.52339-1.1628 0.51185-1.1827-0.01154-0.02-1.2913 0.19183-1.3021 0.17309-0.01082-0.0187 0.84546-0.93657 0.83681-0.95157-0.01731-0.03-1.3067-0.2214-1.3067-0.2214s1.1137-0.60857 1.131-0.63855c0.0087-0.015-1.1435-0.59039-1.1327-0.60912 0.0054-9e-3 1.2411-0.23821 1.2468-0.24805 0.0057-0.01-0.92154-0.90961-0.91577-0.91961 0.0058-0.01 1.2492 0.15171 1.2549 0.14189 0.0057-0.01-0.6011-1.1541-0.5957-1.1634 0.01082-0.0187 1.1449 0.50951 1.1536 0.49453 0.01731-0.03-0.20296-1.3182-0.20296-1.3182s0.92344 0.86636 0.95806 0.86636c0.01731 0 0.20895-1.2778 0.23058-1.2778 0.02163 0 0.63328 1.1022 0.65636 1.1022 0.02308 0 0.60407-1.1623 0.62571-1.1623 0.02164 0 0.26099 1.2301 0.2783 1.2301 0.03462 0 0.94747-0.933 0.94747-0.933s-0.16016 1.2576-0.14285 1.2876c0.0087 0.015 1.1533-0.57992 1.1641-0.56116 0.01082 0.0187-0.52339 1.1627-0.51185 1.1827 0.0058 0.01 1.2798-0.21182 1.2855-0.20201 0.0057 0.01-0.85511 0.91988-0.8497 0.92927 0.01082 0.0187 1.2987 0.20765 1.3074 0.22265 0.01731 0.03-1.0734 0.63855-1.0734 0.63855s1.1507 0.5779 1.1334 0.60788c-0.0087 0.015-1.2489 0.25161-1.2597 0.27035-0.0054 9e-3 0.922 0.90884 0.91632 0.91866-0.0057 0.01-1.2491-0.15185-1.2549-0.14187-0.01154 0.02 0.5893 1.1745 0.57848 1.1933-0.01082 0.0187-1.1449-0.50954-1.1536-0.49456-0.01731 0.03 0.20296 1.3182 0.20296 1.3182" stroke-width=".21081"/>
  <g stroke-width=".21081">
   <path d="m90.213 175.48s-0.8827-0.82-0.9291-0.82c-0.0231 0-0.2122 1.209-0.2411 1.209-0.0277 0-0.614-1.043-0.6436-1.043s-0.5871 1.1-0.6153 1.1-0.2621-1.164-0.2855-1.164c-0.0417 0-0.9133 0.883-0.9197 0.883-0.0091 0 0.0407-0.437 0.0809-0.787 0.0262-0.228 0.0444-0.423 0.0354-0.439-0.011-0.018-1.0977 0.537-1.1127 0.512-0.0137-0.024 0.4878-1.113 0.4728-1.139-0.0146-0.026-1.2292 0.168-1.2434 0.144-0.014-0.025 0.7923-0.9 0.7804-0.92-0.0205-0.036-1.2442-0.224-1.2477-0.23-0.0049-8e-3 1.0447-0.591 1.0585-0.624 8e-4 -8e-3 -0.1377-0.083-0.315-0.175-0.3187-0.166-0.7634-0.401-0.7518-0.42 0.0082-0.014 1.181-0.238 1.1907-0.255 0.0089-0.015-0.8643-0.873-0.8549-0.889 0.0092-0.016 1.1892 0.13 1.1983 0.114 0.0093-0.016-0.5608-1.105-0.552-1.12 0.0142-0.025 1.0909 0.468 1.1023 0.449 0.0223-0.039-0.1537-1.111-0.1777-1.252-0.0017-0.01-0.0026-0.016-0.0024-0.016 0.0015 0 0.8838 0.82 0.9291 0.82 0.0231 0 0.2122-1.209 0.2411-1.209 0.0277 0 0.614 1.043 0.6436 1.043s0.5871-1.1 0.6152-1.1c0.0282 0 0.2622 1.164 0.2855 1.164 0.0418 0 0.9134-0.883 0.9198-0.883 9e-3 0-0.0394 0.424-0.0794 0.772-0.0271 0.235-0.0463 0.438-0.037 0.454 0.011 0.019 1.0978-0.537 1.1127-0.511 0.0137 0.023-0.4878 1.112-0.4729 1.138 0.0092 0.016 1.2183-0.187 1.2276-0.171 0.0091 0.016-0.8015 0.883-0.7927 0.898 0.0144 0.025 1.2367 0.211 1.2485 0.231 0.0209 0.037-1.007 0.619-1.0044 0.624 0.0024 4e-3 0.1674 0.088 0.3668 0.191 0.315 0.161 0.7163 0.378 0.7016 0.403-0.0113 0.02-1.1885 0.25-1.2031 0.276-0.0086 0.014 0.8648 0.872 0.8554 0.889-9e-3 0.015-1.189-0.131-1.1982-0.115-0.015 0.026 0.5495 1.125 0.5355 1.149-0.0143 0.025-1.0909-0.469-1.1024-0.449-0.0234 0.041 0.1803 1.268 0.1803 1.268"/>
   <path d="m96.08 175.44s-0.808-0.734-0.8762-0.734c-0.0336 0-0.2181 1.082-0.2603 1.082-0.0388 0-0.5787-0.933-0.6202-0.933s-0.5561 0.984-0.5961 0.984c-0.0403 0-0.2644-1.042-0.2988-1.042-0.0547 0-0.8509 0.791-0.8689 0.791-0.0259 0 0.0078-0.391 0.0438-0.705 0.0235-0.204 0.0369-0.384 0.0239-0.406-0.0151-0.026-0.9962 0.458-1.0186 0.419-0.019-0.033 0.4227-1.021 0.4014-1.058-0.0204-0.035-1.1158 0.125-1.1361 0.09-0.0198-0.034 0.695-0.83 0.6774-0.861-0.0265-0.046-1.1302-0.227-1.1402-0.245-0.0136-0.023 0.9187-0.559 0.9259-0.597-0.0033-0.015-0.1297-0.086-0.2885-0.168-0.2854-0.149-0.6777-0.369-0.6578-0.404 0.0134-0.022 1.0713-0.235 1.0882-0.265 0.0149-0.026-0.7597-0.807-0.7435-0.835 0.0153-0.027 1.0794 0.092 1.0948 0.065 0.016-0.027-0.4872-1.016-0.4722-1.042 0.0206-0.035 0.9922 0.394 1.0087 0.365 0.0335-0.058-0.1152-1.033-0.1367-1.16-0.0015-9e-3 -0.0021-0.014-0.0017-0.014 0.0044 0 0.8115 0.734 0.8762 0.734 0.0337 0 0.2183-1.082 0.2604-1.082 0.0388 0 0.5786 0.934 0.6201 0.934s0.5561-0.985 0.596-0.985c0.0403 0 0.2645 1.042 0.2989 1.042 0.0548 0 0.8511-0.79 0.869-0.79 0.0255 0-0.0071 0.379-0.043 0.69-0.0242 0.211-0.0384 0.398-0.025 0.421 0.0152 0.026 0.9962-0.458 1.0186-0.42 0.019 0.033-0.4227 1.022-0.4015 1.058 0.0155 0.027 1.1058-0.142 1.1216-0.115 0.0155 0.027-0.7033 0.817-0.6885 0.842 0.021 0.037 1.1235 0.216 1.1409 0.246 0.0276 0.048-0.8857 0.583-0.8783 0.595 0.0068 0.012 0.1573 0.092 0.3359 0.184 0.2821 0.145 0.6359 0.349 0.6137 0.387-0.0162 0.028-1.078 0.248-1.0995 0.285-0.0147 0.025 0.7601 0.806 0.744 0.834-0.0152 0.027-1.0794-0.092-1.0948-0.065-0.0211 0.036 0.4768 1.034 0.4571 1.068-0.0206 0.036-0.9922-0.393-1.0088-0.365-0.0346 0.06 0.1387 1.175 0.1387 1.175"/>
   <path d="m103.68 175.4s-0.711-0.623-0.807-0.623c-0.048 0-0.226 0.919-0.285 0.919-0.054 0-0.533-0.793-0.59-0.793s-0.516 0.836-0.572 0.836-0.267-0.885-0.316-0.885c-0.071 0-0.77 0.671-0.803 0.671-0.047 0-0.034-0.331-4e-3 -0.598 0.02-0.173 0.027-0.333 9e-3 -0.364-0.02-0.036-0.8645 0.356-0.8967 0.301-0.0259-0.045 0.3383-0.903 0.309-0.954-0.0279-0.048-0.969 0.069-0.9972 0.02-0.0274-0.047 0.569-0.742 0.544-0.785-0.0342-0.059-0.9824-0.233-1.0008-0.264-0.0251-0.044 0.7553-0.518 0.7541-0.563-0.0086-0.023-0.1194-0.089-0.2542-0.159-0.2423-0.126-0.5668-0.328-0.5361-0.381 0.0201-0.035 0.9291-0.234 0.9554-0.28 0.0227-0.039-0.6242-0.721-0.5993-0.765 0.0233-0.04 0.9374 0.043 0.9608 2e-3 0.0246-0.043-0.3917-0.901-0.3688-0.941 0.0289-0.049 0.8648 0.297 0.8878 0.256 0.048-0.082-0.066-0.933-0.0839-1.041-0.0013-7e-3 -0.0016-0.011-7e-4 -0.011 8e-3 0 0.7176 0.623 0.8076 0.623 0.047 0 0.226-0.919 0.285-0.919 0.053 0 0.533 0.793 0.59 0.793s0.516-0.837 0.571-0.837c0.056 0 0.268 0.885 0.316 0.885 0.072 0 0.771-0.671 0.804-0.671 0.046 0 0.034 0.322 4e-3 0.587-0.021 0.178-0.028 0.345-0.01 0.377 0.021 0.036 0.865-0.356 0.897-0.301 0.026 0.045-0.338 0.903-0.309 0.954 0.024 0.04 0.96-0.084 0.984-0.043 0.024 0.042-0.576 0.73-0.553 0.769 0.029 0.051 0.977 0.223 1.001 0.266 0.037 0.062-0.728 0.535-0.715 0.558 0.013 0.022 0.144 0.097 0.296 0.175 0.24 0.122 0.532 0.31 0.5 0.365-0.022 0.039-0.935 0.244-0.965 0.297-0.023 0.039 0.624 0.721 0.599 0.764-0.023 0.04-0.937-0.043-0.96-2e-3 -0.029 0.051 0.382 0.917 0.355 0.964-0.029 0.05-0.864-0.296-0.887-0.256-0.05 0.085 0.084 1.054 0.084 1.054"/>
   <path d="m112.67 175.36s-0.597-0.492-0.726-0.492c-0.064 0-0.235 0.725-0.315 0.725-0.07 0-0.479-0.626-0.554-0.626s-0.469 0.661-0.542 0.661c-0.075 0-0.271-0.699-0.336-0.699-0.092 0-0.675 0.53-0.726 0.53-0.073 0-0.085-0.262-0.061-0.472 0.016-0.138 0.016-0.273-8e-3 -0.316-0.027-0.046-0.709 0.237-0.753 0.161-0.034-0.059 0.239-0.762 0.2-0.83-0.037-0.063-0.795 3e-3 -0.833-0.062-0.036-0.063 0.42-0.637 0.386-0.696-0.043-0.075-0.807-0.238-0.836-0.288-0.038-0.066 0.562-0.468 0.551-0.521-0.015-0.032-0.107-0.093-0.214-0.148-0.191-0.1-0.435-0.28-0.392-0.355 0.028-0.048 0.761-0.232 0.799-0.297 0.031-0.055-0.464-0.62-0.429-0.681 0.033-0.057 0.769-0.017 0.802-0.074 0.035-0.06-0.279-0.764-0.246-0.82 0.038-0.067 0.713 0.181 0.744 0.127 0.065-0.113-7e-3 -0.816-0.021-0.9-1e-3 -6e-3 -1e-3 -0.01 0-0.01 0.013 0 0.607 0.492 0.727 0.492 0.064 0 0.235-0.725 0.315-0.725 0.07 0 0.478 0.626 0.554 0.626 0.075 0 0.468-0.661 0.541-0.661 0.075 0 0.271 0.699 0.337 0.699 0.092 0 0.675-0.53 0.725-0.53 0.072 0 0.084 0.255 0.06 0.463-0.016 0.142-0.016 0.283 9e-3 0.327 0.027 0.047 0.709-0.236 0.753-0.161 0.034 0.059-0.239 0.762-0.2 0.83 0.033 0.057 0.788-0.015 0.822 0.044 0.033 0.058-0.426 0.627-0.394 0.682 0.04 0.069 0.803 0.231 0.837 0.289 0.046 0.08-0.543 0.479-0.522 0.515 0.019 0.033 0.129 0.102 0.248 0.163 0.189 0.097 0.409 0.265 0.366 0.34-0.03 0.052-0.766 0.24-0.807 0.311-0.032 0.055 0.464 0.62 0.429 0.681-0.033 0.056-0.769 0.016-0.802 0.074-0.039 0.066 0.271 0.777 0.235 0.839-0.039 0.067-0.713-0.181-0.744-0.127-0.066 0.115 0.021 0.912 0.021 0.912"/>
   <path d="m122.88 175.3s-0.468-0.343-0.635-0.343c-0.082 0-0.245 0.506-0.348 0.506-0.089 0-0.417-0.437-0.513-0.437s-0.415 0.461-0.509 0.461c-0.095 0-0.274-0.487-0.359-0.487-0.114 0-0.566 0.369-0.637 0.369-0.102 0-0.142-0.182-0.126-0.329 0.011-0.096 3e-3 -0.205-0.028-0.259-0.034-0.059-0.532 0.1-0.589 1e-3 -0.043-0.075 0.125-0.603 0.075-0.689-0.047-0.081-0.598-0.073-0.646-0.157-0.046-0.08 0.251-0.517 0.207-0.593-0.054-0.093-0.609-0.246-0.649-0.314-0.054-0.094 0.343-0.413 0.32-0.475-0.022-0.043-0.093-0.097-0.167-0.136-0.134-0.069-0.287-0.225-0.229-0.325 0.037-0.064 0.57-0.229 0.62-0.316 0.043-0.073-0.282-0.505-0.235-0.587 0.044-0.075 0.579-0.084 0.622-0.159 0.047-0.081-0.15-0.61-0.107-0.684 0.05-0.086 0.541 0.05 0.581-0.019 0.085-0.146 0.061-0.682 0.051-0.741-1e-3 -4e-3 0-6e-3 1e-3 -6e-3 0.018 0 0.481 0.343 0.635 0.343 0.082 0 0.246-0.506 0.348-0.506 0.09 0 0.417 0.436 0.513 0.436s0.415-0.46 0.509-0.46c0.095 0 0.274 0.487 0.359 0.487 0.115 0 0.567-0.369 0.638-0.369 0.1 0 0.14 0.177 0.123 0.323-0.011 0.098-3e-3 0.212 0.03 0.268 0.034 0.06 0.532-0.099 0.588-1e-3 0.044 0.074-0.125 0.603-0.075 0.689 0.044 0.076 0.592 0.063 0.638 0.142 0.044 0.077-0.255 0.51-0.213 0.584 0.051 0.088 0.606 0.24 0.649 0.315 0.058 0.1-0.331 0.416-0.302 0.466 0.027 0.047 0.111 0.108 0.194 0.151 0.132 0.067 0.269 0.212 0.213 0.31-0.038 0.066-0.574 0.236-0.627 0.328-0.042 0.073 0.282 0.504 0.235 0.586-0.043 0.074-0.578 0.083-0.622 0.159-0.049 0.086 0.145 0.62 0.099 0.7-0.05 0.085-0.541-0.051-0.581 0.018-0.086 0.149-0.051 0.75-0.051 0.75"/>
   <path d="m134.16 175.24s-0.323-0.179-0.532-0.179c-0.102 0-0.257 0.264-0.385 0.264-0.111 0-0.35-0.228-0.469-0.228s-0.355 0.24-0.472 0.24c-0.118 0-0.279-0.254-0.384-0.254-0.14 0-0.446 0.193-0.54 0.193-0.134 0-0.205-0.095-0.197-0.172 6e-3 -0.049-0.011-0.129-0.05-0.197-0.042-0.072-0.337-0.051-0.408-0.174-0.054-0.093 0-0.427-0.062-0.535-0.058-0.1-0.38-0.156-0.44-0.259-0.058-0.101 0.064-0.386 9e-3 -0.481-0.065-0.113-0.39-0.254-0.442-0.344-0.071-0.123 0.1-0.35 0.065-0.423-0.03-0.055-0.078-0.101-0.116-0.122-0.07-0.036-0.122-0.164-0.048-0.293 0.047-0.081 0.358-0.226 0.422-0.337 0.054-0.093-0.08-0.378-0.02-0.482 0.055-0.095 0.367-0.158 0.423-0.254 0.059-0.103-9e-3 -0.438 0.046-0.533 0.062-0.107 0.351-0.094 0.401-0.181 0.106-0.183 0.135-0.533 0.129-0.564 0-2e-3 1e-3 -3e-3 4e-3 -3e-3 0.022 0 0.341 0.179 0.532 0.179 0.103 0 0.258-0.264 0.386-0.264 0.11 0 0.349 0.227 0.468 0.227s0.354-0.24 0.471-0.24c0.119 0 0.279 0.254 0.385 0.254 0.14 0 0.447-0.192 0.54-0.192 0.132 0 0.202 0.092 0.193 0.168-6e-3 0.051 0.013 0.134 0.053 0.204 0.042 0.074 0.337 0.052 0.408 0.175 0.053 0.092 0 0.427 0.062 0.534 0.056 0.097 0.376 0.15 0.434 0.25 0.056 0.098-0.066 0.381-0.012 0.475 0.063 0.111 0.388 0.251 0.442 0.344 0.07 0.123-0.098 0.346-0.06 0.413 0.035 0.061 0.091 0.114 0.135 0.136 0.069 0.035 0.114 0.155 0.043 0.278-0.047 0.083-0.361 0.231-0.427 0.346-0.054 0.093 0.081 0.377 0.021 0.481-0.055 0.096-0.367 0.158-0.423 0.255-0.061 0.106 4e-3 0.445-0.053 0.544-0.061 0.107-0.351 0.094-0.401 0.18-0.107 0.186-0.131 0.571-0.131 0.571"/>
  </g>
 </g>
</svg>
