<?xml version="1.0" encoding="UTF-8" standalone="no"?>
<svg
   xmlns:dc="http://purl.org/dc/elements/1.1/"
   xmlns:cc="http://creativecommons.org/ns#"
   xmlns:rdf="http://www.w3.org/1999/02/22-rdf-syntax-ns#"
   xmlns:svg="http://www.w3.org/2000/svg"
   xmlns="http://www.w3.org/2000/svg"
   xmlns:sodipodi="http://sodipodi.sourceforge.net/DTD/sodipodi-0.dtd"
   xmlns:inkscape="http://www.inkscape.org/namespaces/inkscape"
   width="16"
   height="48"
   viewBox="0 0 4.2333332 12.7"
   version="1.1"
   id="svg1082"
   inkscape:version="0.92.4 (5da689c313, 2019-01-14)"
   sodipodi:docname="tutorial-credits-icon.svg">
  <defs
     id="defs352">
    <filter
       id="filter1771"
       inkscape:label="Drop Shadow"
       style="color-interpolation-filters:sRGB">
      <feFlood
         id="feFlood1761"
         result="flood"
         flood-color="rgb(0,0,0)"
         flood-opacity="0.356863" />
      <feComposite
         id="feComposite1763"
         result="composite1"
         operator="in"
         in2="SourceGraphic"
         in="flood" />
      <feGaussianBlur
         id="feGaussianBlur1765"
         result="blur"
         stdDeviation="0.25"
         in="composite1" />
      <feOffset
         id="feOffset1767"
         result="offset"
         dy="0.1"
         dx="0.1" />
      <feComposite
         id="feComposite1769"
         result="composite2"
         operator="over"
         in2="offset"
         in="SourceGraphic" />
    </filter>
  </defs>
  <sodipodi:namedview
     width="1e-05px"
     inkscape:snap-nodes="false"
     inkscape:object-nodes="false"
     inkscape:bbox-paths="true"
     inkscape:bbox-nodes="true"
     inkscape:snap-bbox="true"
     inkscape:snap-global="false"
     units="px"
     inkscape:window-maximized="1"
     inkscape:window-y="27"
     inkscape:window-x="54"
     inkscape:window-height="1016"
     inkscape:window-width="1866"
     showguides="false"
     showgrid="true"
     inkscape:current-layer="layer1"
     inkscape:document-units="px"
     inkscape:cy="19.15249"
     inkscape:cx="10.634972"
     inkscape:zoom="9.9302581"
     inkscape:pageshadow="2"
     inkscape:pageopacity="0.0"
     borderopacity="1.0"
     bordercolor="#666666"
     pagecolor="#ffffff"
     id="base"
     inkscape:pagecheckerboard="true">
    <inkscape:grid
       empopacity="1"
       empcolor="#e33c3c"
       opacity="0.15686275"
       color="#7565ba"
       dotted="false"
       empspacing="16"
       id="grid3506"
       type="xygrid" />
  </sodipodi:namedview>
  <metadata
     id="metadata1079">
    <rdf:RDF>
      <cc:Work
         rdf:about="">
        <dc:format>image/svg+xml</dc:format>
        <dc:type
           rdf:resource="http://purl.org/dc/dcmitype/StillImage" />
        <dc:title />
      </cc:Work>
    </rdf:RDF>
  </metadata>
  <g
     id="layer1"
     inkscape:groupmode="layer"
     inkscape:label="1. réteg">
    <path
       inkscape:label="icon-credits-designer"
       d="m 3.8806374,8.7312465 c -0.049084,0.33285 -0.680909,0.24492 -0.4641529,0.95058 l 0.1310118,0.0747 c 0.5145692,-0.1537 0.464729,-0.55231 0.3331411,-1.0252 z m -0.474416,0.96698 c -0.1464857,0.13951 -0.2927577,0.3775495 -0.4314609,0.6505295 0.1091132,0.0649 0.2266656,0.11622 0.3484142,0.16084 0.1085345,-0.26506 0.1907579,-0.5177295 0.2181169,-0.7340595 l -0.096411,-0.0577 z M 2.9518511,10.393146 c -0.2346769,0.47126 -0.4456946,1.03791 -0.5946906,1.40081 -0.068474,0.16677 -0.2353749,0.53601 -0.1641842,0.64146 0.1678081,-0.0158 0.3419989,-0.35026 0.4266881,-0.50878 0.2196925,-0.41346 0.4923926,-0.91037 0.6858508,-1.37218 -0.122461,-0.0442 -0.2418316,-0.0955 -0.3536641,-0.16131 z M 1.4463479,8.7315565 c -0.4018053,-0.009 -0.71383801,0.16479 -0.90950517,0.43615 -0.19566715,0.27136 -0.28251531,0.63328 -0.27130127,1.0118195 0.0224181,0.7571 0.43807447,1.5987 1.24126784,1.92082 0.1262201,0.0506 0.2544087,0.0129 0.331246,-0.0656 0.076832,-0.0785 0.121064,-0.18513 0.162264,-0.28991 0.041197,-0.10477 0.078764,-0.20994 0.1173055,-0.28577 0.038557,-0.0758 0.072156,-0.10705 0.094051,-0.11059 l 0.00723,-5.3e-4 0.00827,-0.003 c 0.050311,-0.0166 0.072664,-0.014 0.1064534,0.0222 0.033789,0.0362 0.073213,0.12506 0.0863,0.28267 0.014373,0.17346 0.1405486,0.32256 0.313159,0.36639 0.1726351,0.0438 0.3831207,-0.0337 0.5379517,-0.26717 0.409699,-0.61777 0.275173,-1.37458 -0.1173054,-1.9662895 -0.1962367,-0.29583 -0.4560099,-0.55509 -0.7508586,-0.74257 -0.2948387,-0.18748 -0.6237729,-0.30183 -0.9565308,-0.30902 z m -0.00465,0.18603 c 0.5836651,0.0126 1.1933454,0.42018 1.557011,0.96842 0.3636555,0.5482595 0.4803108,1.2168895 0.1193723,1.7611295 -0.1254892,0.18922 -0.246276,0.21487 -0.3395141,0.19121 -0.093228,-0.0237 -0.167834,-0.11356 -0.175183,-0.20258 -0.014987,-0.18083 -0.056841,-0.30923 -0.1359091,-0.39377 -0.076528,-0.0818 -0.1919165,-0.0986 -0.2899047,-0.0703 -0.1105485,0.022 -0.1787699,0.11155 -0.2258261,0.20412 -0.048303,0.095 -0.084217,0.20473 -0.1229899,0.30334 -0.038769,0.0986 -0.082051,0.18295 -0.1224731,0.22428 -0.04043,0.0413 -0.058209,0.0539 -0.1307414,0.0248 -0.71950568,-0.28855 -1.10446612,-1.06064 -1.12499593,-1.75389 -0.0102649,-0.3466295 0.0720529,-0.6682795 0.23667809,-0.8965895 0.16462026,-0.2283 0.40634664,-0.36768 0.75447594,-0.36019 z m -0.214974,0.23048 c -0.1030857,-0.0113 -0.2090265,0.0386 -0.26303302,0.13384 -0.0720136,0.12695 -0.0271998,0.29025 0.0997355,0.36225 0.1269353,0.072 0.2902382,0.0267 0.3622518,-0.10025 0.072009,-0.12694 0.027717,-0.29179 -0.099219,-0.3638 -0.031734,-0.018 -0.065373,-0.0283 -0.099735,-0.032 z m 0.6423381,0.0543 c -0.1028152,-0.0118 -0.207993,0.0371 -0.2619995,0.13229 -0.072009,0.12694 -0.026683,0.29025 0.1002522,0.36225 0.1269354,0.072 0.2917934,0.0282 0.3638021,-0.0987 0.072009,-0.12693 0.025133,-0.29128 -0.1018026,-0.36328 -0.031734,-0.018 -0.065981,-0.0286 -0.1002522,-0.0326 z m -0.6965983,0.13126 c 0.020135,-0.006 0.042533,-0.004 0.062528,0.008 0.039992,0.0227 0.053555,0.0724 0.031006,0.11214 -0.022549,0.0397 -0.071113,0.0516 -0.1111043,0.0289 -0.039992,-0.0227 -0.054072,-0.0703 -0.031523,-0.11007 0.011274,-0.0199 0.028958,-0.0332 0.049093,-0.0388 z m 0.6438883,0.0543 c 0.019476,-0.005 0.041499,-0.003 0.061495,0.008 0.039991,0.0227 0.054072,0.0703 0.031523,0.11007 -0.022549,0.0397 -0.07163,0.0537 -0.1116211,0.031 -0.039991,-0.0227 -0.052005,-0.0708 -0.029456,-0.11058 0.011275,-0.0199 0.028583,-0.0333 0.048059,-0.0388 z m 0.5488037,0.262 c -0.1030857,-0.0113 -0.2090265,0.0391 -0.263033,0.13436 -0.072014,0.12694 -0.026683,0.2902395 0.1002523,0.3622495 0.1269353,0.072 0.2902382,0.0267 0.3622516,-0.10025 0.072009,-0.1269395 0.027717,-0.2917995 -0.099219,-0.3637995 -0.031734,-0.018 -0.06589,-0.0288 -0.1002523,-0.0326 z m -1.49809974,0.0124 c -0.1028152,-0.0118 -0.20799306,0.0376 -0.26199954,0.13281 -0.0720087,0.12694 -0.0266831,0.2897295 0.10025229,0.3617395 0.12693531,0.072 0.28972634,0.0272 0.36173499,-0.0997 0.072009,-0.1269395 0.0272,-0.2902395 -0.0997355,-0.3622495 -0.0317338,-0.018 -0.0659805,-0.0286 -0.10025224,-0.0326 z m 1.44435624,0.17363 c 0.020135,-0.006 0.042533,-0.004 0.062528,0.008 0.039992,0.0227 0.051488,0.0713 0.028939,0.1111 -0.022549,0.0397 -0.069046,0.0527 -0.1090372,0.03 -0.039992,-0.0227 -0.054588,-0.0703 -0.032039,-0.11007 0.011274,-0.0199 0.029474,-0.0332 0.049609,-0.0388 z m -1.49654945,0.0119 c 0.019476,-0.005 0.0409823,-0.003 0.0609782,0.008 0.0399918,0.0227 0.0540716,0.0708 0.0315226,0.11058 -0.0225488,0.039799 -0.0705959,0.0516 -0.11058756,0.0289 -0.0399918,-0.0227 -0.0525213,-0.0693 -0.0299723,-0.10903 0.0112744,-0.0199 0.0285832,-0.0333 0.0480591,-0.0388 z m 0.15192869,0.4345995 c -0.10281378,-0.0118 -0.20799301,0.0376 -0.26199952,0.13281 -0.0720136,0.12694 -0.0271998,0.28973 0.0997355,0.36173 0.12693531,0.072 0.29178848,0.0283 0.36380208,-0.0987 0.072009,-0.12694 0.02565,-0.29128 -0.1012858,-0.36329 -0.031734,-0.018 -0.065981,-0.0286 -0.10025229,-0.0325 z m -0.0211873,0.1819 c 0.010436,10e-4 0.0204912,0.005 0.0304891,0.0103 0.0399915,0.0227 0.0535549,0.0724 0.0310059,0.11214 -0.0225489,0.0398 -0.0705961,0.0516 -0.11058702,0.0289 -0.0399915,-0.0227 -0.0530381,-0.0693 -0.0304891,-0.10904 0.0169116,-0.0298 0.048274,-0.0459 0.0795817,-0.0424 z m 0.43769936,0.32866 c -0.053982,0.002 -0.1077807,0.0164 -0.1581299,0.0444 -0.2013776,0.11199 -0.24302286,0.38588 -0.1224731,0.60203 0.1205447,0.21617 0.3758334,0.32544 0.5772257,0.21343 0.2013821,-0.11199 0.2414674,-0.38535 0.1209229,-0.60152 -0.090412,-0.16211 -0.2556002,-0.26459 -0.4175456,-0.25838 z m 0.011369,0.18604 c 0.08532,-10e-4 0.1835329,0.0545 0.2439127,0.16278 0.080507,0.14443 0.045739,0.29608 -0.049093,0.34881 -0.094847,0.0528 -0.2440018,0.003 -0.324528,-0.14107 -0.080507,-0.14443 -0.044179,-0.29712 0.050643,-0.34985 0.023713,-0.0132 0.050625,-0.0203 0.079065,-0.0207 z"
       style="fill:#ffffff;filter:url(#filter1771)"
       id="icon-credits-designer"
       inkscape:connector-curvature="0" />
    <path
       inkscape:label="icon-credits-translators"
       id="icon-credits-translators"
       style="fill:#ffffff;filter:url(#filter1771)"
       d="m 2.0139318,4.7222265 c -0.061582,0.003 -0.1165377,0.0125 -0.1663981,0.0336 -0.04986,0.0211 -0.098263,0.0577 -0.1209228,0.11317 -0.020926,0.0512 -0.013791,0.10732 0.00413,0.154 0.017921,0.0467 0.046944,0.0883 0.083716,0.12919 0.044413,0.0494 0.1040631,0.097 0.1705322,0.14366 l -0.1162719,0.22583 0.4630208,-0.12816 -0.1209228,-0.47284 c 0.059536,0.009 0.1234413,0.0219 0.1917195,0.0403 l 0.048576,-0.17984 c -0.163791,-0.0442 -0.3140195,-0.0648 -0.4371827,-0.0589 z m 1.2107788,0.0992 -0.4630208,0.12816 0.1322917,0.51573 0.1209228,-0.23513 c 0.081507,0.0544 0.1489707,0.10971 0.1865518,0.15451 0.044434,0.053 0.042424,0.0792 0.042892,0.078 2.911e-4,-7.5e-4 -0.00348,0.006 -0.029456,0.0155 -0.025974,0.009 -0.070626,0.0155 -0.1271241,0.0155 -0.1129972,1.5e-4 -0.2711553,-0.0273 -0.4433838,-0.0822 l -0.056327,0.17777 c 0.186336,0.0595 0.358118,0.0901 0.4997111,0.0899 0.070797,-9e-5 0.1353609,-0.007 0.1917195,-0.0274 0.056359,-0.0205 0.1114033,-0.0576 0.1364258,-0.11885 0.039077,-0.0956 -0.00727,-0.19072 -0.07183,-0.26769 -0.058082,-0.0693 -0.1436076,-0.13649 -0.2439127,-0.20102 z m -1.2009602,0.0847 c 0.043728,-0.002 0.097598,0.002 0.1565796,0.01 l -0.1100708,0.21446 c -0.049273,-0.0365 -0.090528,-0.0719 -0.1188558,-0.10336 -0.026494,-0.0295 -0.042893,-0.0542 -0.049093,-0.0703 -0.0062,-0.0161 -0.00337,-0.0182 -0.00362,-0.0176 -2.699e-4,6.6e-4 9.128e-4,-0.005 0.021187,-0.0139 0.020273,-0.009 0.05697,-0.0169 0.1038696,-0.0191 z m 0.7055203,-0.45698 -1.4995367,3.74569 0.1782996,0.0718 1.4984494,-3.74677 z m 0.1993685,1.33293 v 0.38344 H 2.3783594 l -0.065584,0.1654 h 0.026176 c 0.1292684,0.36061 0.3063341,0.66669 0.5399245,0.91388 -0.2426618,0.19957 -0.5397627,0.34471 -0.9003535,0.44903 0.036285,0.0386 0.090556,0.12026 0.1064315,0.16109 0.3651266,-0.11794 0.6713114,-0.27439 0.920777,-0.48758 0.249465,0.22452 0.5578639,0.38775 0.9365977,0.48527 0.024948,-0.0476 0.079418,-0.12456 0.1202391,-0.16309 -0.3673946,-0.0862 -0.6735794,-0.24038 -0.9207772,-0.44903 0.2358583,-0.23813 0.4150378,-0.53762 0.5488419,-0.90957 h 0.3492105 v -0.1654 H 3.0989298 v -0.38344 z m -2.08001803,0.40646 -0.63139825,1.65342 h 0.23587543 l 0.15073011,-0.42428 H 1.3491371 l 0.027902,0.0791 0.1139106,-0.28795 -0.3889066,-1.0203 z m 1.67644103,0.14238 h 0.970541 c -0.1156615,0.31977 -0.2743258,0.58072 -0.4829693,0.79164 -0.2154473,-0.22 -0.3764461,-0.48774 -0.4875717,-0.79164 z m -1.55016144,0.0779 0.30433674,0.82297 H 0.67142693 Z"
       inkscape:connector-curvature="0" />
    <path
       inkscape:label="icon-credits-authors"
       d="m 0.26458333,0.61500647 c 0.10103184,0.0151 0.38303662,0.0739 0.60619101,0.0905 v 0 c 0.27180596,0.0202 0.57080536,0.003 0.90928656,0 v 0 c 0.4280318,-0.004 1.2911911,0.0473 1.4538538,-0.0248 v 0 c 0.040486,-0.0179 0.051353,-0.0548 0.061624,-0.0657 -0.010271,-0.0109 -0.021137,-0.0478 -0.061624,-0.0657 v 0 c -0.1626627,-0.0721 -1.025822,-0.0211 -1.4538538,-0.0248 v 0 c -0.3384812,-0.003 -0.6374806,-0.0202 -0.90928656,0 v 0 c -0.22315439,0.0166 -0.50515917,0.0754 -0.60619101,0.0905 z m 1.3911e-4,0.65349003 c 0.0950062,-7.6e-4 0.35740522,0.0247 0.55891228,0.0303 v 0 c 0.24517238,0.007 0.51367378,-0.0107 0.81967458,0.001 h 4e-7 c 0.4035109,0.0159 1.1389835,0.13809 1.3192523,0.0507 v 0 c 0.043944,-0.0213 0.053244,-0.0687 0.063683,-0.0824 -0.010506,-0.0138 -0.019564,-0.0609 -0.062412,-0.0829 v 0 c -0.1265231,-0.065 -0.9435917,-0.0494 -1.3128485,-0.0662 h -4e-7 c -0.3112383,-0.0141 -0.5835334,-0.0355 -0.83716375,-10e-4 v 0 c -0.22942257,0.0309 -0.43794244,0.11271 -0.54909781,0.15039 z m 1.391e-4,0.65349 c 0.0892174,-0.0171 0.33311209,-0.0254 0.51261314,-0.0303 v 0 c 0.0398162,-0.001 0.0799936,-0.003 0.12104112,-0.004 h 1e-7 c 0.1870738,-0.007 0.3803575,-0.0134 0.6072293,0.007 h 5e-7 c 0.1627299,0.0146 0.3962802,0.0586 0.6167295,0.0908 h 2e-7 c 0.2456747,0.0358 0.4593995,0.0497 0.5509243,0.0152 v 0 c 0.051129,-0.0193 0.069933,-0.0654 0.083552,-0.0786 -0.013606,-0.0133 -0.031744,-0.059 -0.079745,-0.0807 v 0 c -0.072019,-0.0325 -0.2994136,-0.0503 -0.5293195,-0.0711 h -10e-8 c -0.2183468,-0.0197 -0.4580922,-0.0392 -0.625167,-0.0557 h -4e-7 c -0.2306612,-0.0228 -0.4381225,-0.0428 -0.6379932,-0.0222 h -1.1e-7 c -0.0439115,0.005 -0.0868972,0.011 -0.12883992,0.0197 v 0 c -0.21647459,0.0451 -0.38976297,0.1515 -0.49102493,0.20992 z m 1.3911e-4,0.6535 c 0.0667182,-0.0273 0.17305953,-0.0566 0.30241917,-0.0741 v 0 c 0.0604014,-0.008 0.11139778,-0.0123 0.16509632,-0.0174 v 0 c 0.0346869,-0.003 0.0699011,-0.006 0.10527955,-0.009 h 6e-8 c 0.1606706,-0.0126 0.32918145,-0.0169 0.52933685,0.014 h 3e-7 c 0.1413394,0.0218 0.3468934,0.0817 0.545274,0.12836 h 1e-7 c 0.2346757,0.0552 0.4390426,0.0778 0.5194143,0.0384 v 0 c 0.040149,-0.0197 0.047161,-0.0669 0.055837,-0.08 -0.00889,-0.0135 -0.015132,-0.0597 -0.050969,-0.0817 v 0 c -0.05257,-0.0324 -0.2683162,-0.0578 -0.481352,-0.0923 h -1e-7 c -0.1952605,-0.0317 -0.4113996,-0.0672 -0.5598324,-0.0914 h -3e-7 c -0.2081531,-0.034 -0.39702224,-0.058 -0.58075876,-0.0297 h -7e-8 c -0.0403158,0.006 -0.0797182,0.0149 -0.11799428,0.0263 v 0 c -0.0566099,0.017 -0.11455646,0.0422 -0.17087834,0.0736 v 0 c -0.12341957,0.0688 -0.20918753,0.14949 -0.2608723,0.19524 z m 1.391e-4,0.65349 c 0.0619075,-0.0413 0.16174181,-0.0909 0.27869083,-0.12268 v 0 c 0.0533511,-0.0145 0.10002578,-0.023 0.14515249,-0.031 v 0 c 0.0297299,-0.005 0.0594782,-0.01 0.0893023,-0.0135 h 5e-8 c 0.0696027,-0.009 0.14180363,-0.0128 0.21975091,-0.009 h 1.4e-7 c 0.0719704,0.003 0.14748713,0.0125 0.22913403,0.0299 h 3e-7 c 0.1248078,0.0265 0.3072682,0.0872 0.482484,0.13419 h 1e-7 c 0.1997799,0.0536 0.3532924,0.0709 0.4364217,0.052 v 0 c 0.040296,-0.009 0.061167,-0.0327 0.072289,-0.0394 -0.011592,-0.007 -0.030597,-0.0298 -0.066784,-0.0441 v 0 c -0.062963,-0.0248 -0.2187579,-0.0596 -0.3961108,-0.11979 h -1e-7 c -0.1994136,-0.0677 -0.3176496,-0.11373 -0.4858323,-0.15885 h -3e-7 c -0.087359,-0.0234 -0.1721253,-0.0419 -0.256897,-0.0506 h -2e-7 c -0.0923785,-0.009 -0.18239196,-0.007 -0.26918609,0.0127 h -6e-8 c -0.0369371,0.008 -0.0728174,0.0195 -0.10736442,0.0339 v 0 c -0.0512989,0.0213 -0.10243574,0.0521 -0.15126598,0.0903 v 0 c -0.106085,0.0829 -0.17695577,0.18078 -0.21978489,0.23645 z m 1.3911e-4,0.65349 c 0.0563511,-0.0553 0.14955022,-0.12631 0.25514458,-0.17308 v 0 c 0.0477569,-0.0212 0.0889056,-0.0338 0.12659375,-0.0444 v 0 c 0.0245805,-0.007 0.0487718,-0.013 0.0731141,-0.0179 v 0 c 0.056081,-0.0113 0.11330994,-0.0168 0.17591159,-0.0127 h 3e-8 c 0.061601,0.004 0.12537309,0.0174 0.18947039,0.0399 h 3e-7 c 0.1279183,0.0449 0.2687146,0.13325 0.4063211,0.18717 v 0 c 0.03017,0.0118 0.059982,0.0219 0.08939,0.0297 v 0 c 0.044119,0.0116 0.092582,0.0186 0.1406623,0.0205 v 0 c 0.1092698,0.004 0.1819084,-0.0172 0.2271849,-0.0293 -0.047493,-0.0129 -0.1083802,-0.0431 -0.1919238,-0.094 v 0 c -0.035557,-0.0216 -0.07444,-0.0462 -0.1094647,-0.0656 v 0 c -0.02397,-0.0133 -0.049911,-0.0267 -0.077011,-0.0402 v 0 c -0.1216507,-0.0603 -0.2821686,-0.12889 -0.4252051,-0.17912 h -4e-7 c -0.072154,-0.0253 -0.14843237,-0.0494 -0.22863418,-0.0607 h -4e-8 c -0.0826248,-0.0116 -0.16558367,-0.009 -0.24582509,0.0151 v 0 c -0.0342253,0.0103 -0.0667143,0.0242 -0.0969454,0.0414 v 0 c -0.0457101,0.0261 -0.0895198,0.0626 -0.1302685,0.10722 v 0 c -0.0875944,0.096 -0.14389274,0.21056 -0.17851538,0.27582 z m 2.25673644,-1.2208 c -0.1849456,0.36244 -0.053257,0.44131 -0.042969,0.51574 -0.1127028,0.26695 -0.257524,0.54365 -0.3785771,0.79134 0.2748955,-0.0522 0.3585453,-0.51837 0.5057536,-0.67741 0.4119442,0.0175 0.7231754,-0.14967 0.9427694,-0.42649 -0.1051976,-0.0645 -0.4013077,-0.13577 -0.4013077,-0.13577 0.2047985,-0.0895 0.3649993,-0.0296 0.5057262,-0.015 0.2030029,-0.33588 0.3016284,-0.78384 0.3071903,-1.25015 3.876e-4,-0.0385 -0.065609,-0.0338 -0.2795067,-0.0922 0.1983619,-0.0524 0.2770712,-0.0922 0.275385,-0.12649 C 3.9399033,0.90877647 3.8764943,0.57040647 3.7704054,0.26460647 3.237771,1.1820565 2.8448159,2.0291365 2.5220163,2.6617365 Z"
       style="fill:#ffffff;filter:url(#filter1771)"
       id="icon-credits-authors"
       inkscape:connector-curvature="0" />
  </g>
</svg>
